<svg version="1.1" viewBox="0 0 130 130" width="130" height="130" xmlns="http://www.w3.org/2000/svg">
 <path d="m14 52.657c0-1.0608 0.4214-2.0783 1.1716-2.8284l47-47c1.5621-1.5621 4.0947-1.5621 5.6568-1e-5l47 47c0.751 0.7501 1.172 1.7676 1.172 2.8284v21.473c0 1.051-0.414 2.0598-1.152 2.8083l-47 47.673c-1.5666 1.589-4.1304 1.589-5.6969 0l-47-47.673c-0.7378-0.7485-1.1515-1.7573-1.1515-2.8083v-21.473z" fill="#613583"/>
 <path d="m15.214 55.443c-1.5621-1.5621-1.5621-4.0948 0-5.6569l46.958-46.958c1.5621-1.5621 4.0947-1.5621 5.6568 0l46.958 46.958c1.563 1.5621 1.563 4.0947 0 5.6568l-46.958 46.958c-1.5621 1.563-4.0947 1.563-5.6568 0l-46.958-46.958z" fill="#a347ba"/>
 <path d="m64.939 4.3081-48.277 48.277 48.277 48.277 48.277-48.277z" fill="#dc8add" stroke-width="1.341"/>
 <path d="m84.771 24.14-2.8444 2.8444c-1.576 1.576-1.576 4.1128 0 5.6889l3.5987 3.5987c-1.5261 2.5804-2.6851 5.3612-3.4416 8.2621h-5.076c-1.1155 0-2.1211 0.45018-2.8483 1.1786-0.72589 0.72699-1.1747 1.7311-1.1747 2.8444v8.05c2.65e-4 0.27719 0.02897 0.54818 0.08247 0.80933v0.0039c0.0531 0.26102 0.13075 0.51069 0.23181 0.75038v0.0039c0.1013 0.23961 0.22561 0.46667 0.36932 0.67965v0.0039c0.14386 0.21298 0.31002 0.4122 0.49105 0.59324 0.72738 0.72861 1.7329 1.1788 2.8484 1.1788h5.076c0.75649 2.9009 1.9155 5.6817 3.4416 8.2621l-3.5987 3.5987c-1.576 1.576-1.576 4.1128 0 5.6889l2.8444 2.8444 17.067-17.067c-0.31533-0.31525-0.60579-0.64843-0.89182-0.98612-0.0644-0.07644-0.13726-0.14652-0.20034-0.22392-0.25128-0.30816-0.48044-0.63427-0.70718-0.95861-0.0789-0.11305-0.16768-0.2191-0.24355-0.33391-0.21749-0.32868-0.41276-0.66686-0.60507-1.0097-0.05954-0.10661-0.1274-0.21032-0.18466-0.31822-0.20976-0.3949-0.39764-0.8034-0.57361-1.214-0.02816-0.06598-0.06276-0.12994-0.09038-0.1964-0.1709-0.41397-0.31589-0.83791-0.45179-1.2651-0.02253-0.07-0.0531-0.13751-0.07483-0.20823-0.15038-0.4962-0.2751-0.99848-0.37712-1.5086-0.10178-0.509-0.17951-1.0245-0.23181-1.544-6.84e-4 -0.0066-0.0027-0.01287-4e-3 -0.01931-0.05195-0.52534-0.07813-1.0555-0.07833-1.5876v-0.0039c2.01e-4 -0.53217 0.02655-1.0623 0.07885-1.5872 6.7e-4 -0.0066 0.0027-0.01287 4e-3 -0.01931 0.0523-0.51946 0.13008-1.035 0.23181-1.544 0.10205-0.5102 0.22682-1.0124 0.37712-1.5086 0.02172-0.07081 0.0523-0.13783 0.07483-0.20823 0.1359-0.42717 0.28089-0.85107 0.45179-1.2651 0.02736-0.06678 0.06195-0.13035 0.09038-0.19648 0.17597-0.41059 0.36384-0.81904 0.57361-1.214 0.05713-0.1079 0.12485-0.21161 0.18466-0.31822 0.19222-0.34276 0.38758-0.68102 0.60507-1.0097 0.0756-0.1149 0.16463-0.22095 0.24356-0.33391 0.22674-0.32434 0.45589-0.65045 0.70717-0.95862 0.0628-0.07724 0.13574-0.14757 0.20035-0.22392 0.28595-0.33761 0.5765-0.67088 0.89181-0.98612zm-56.04 20.398c-2.2288 0-4.023 1.7943-4.023 4.023v5.1388c-1.7738 0.45589-3.4819 1.0744-5.1231 1.8073l13.169 13.169c8.9152 0 16.092 7.177 16.092 16.092l13.169 13.169c0.73277-1.6411 1.3513-3.3493 1.8073-5.1231h5.1388c2.2288 0 4.023-1.7943 4.023-4.023v-8.0461c0-2.2288-1.7943-4.023-4.023-4.023h-5.1388c-0.75458-2.936-1.9135-5.6898-3.4102-8.2346l3.6301-3.6301c1.576-1.576 1.576-4.1128 0-5.6889l-5.6889-5.6889c-1.576-1.576-4.1128-1.576-5.6889 0l-3.6301 3.6301c-2.5452-1.4966-5.299-2.6555-8.2346-3.4102v-5.1388c0-2.2288-1.7943-4.023-4.023-4.023z" fill="#a347ba" stroke-width="1.341"/>
 <path d="m79.716 35.455h-9.8722v19.034h-0.2841l-12.926-19.034h-8.3807v36.364h9.8721v-19.105h0.2131l13.139 19.105h8.2387v-36.364z" fill="#fff"/>
</svg>
